{
    "Parameters": {
        "CustomTag": {
            "Description": "A tag of your own choosing",
            "Type": "String",
            "MinLength": 1,
            "MaxLength": 256,
            "Default": "Do your own tagging please..."
        }
    },
    "Resources": {
        "MyStaticallyHostedWebsiteBucket": {
            "Type": "AWS::S3::Bucket",
            "Properties": {
                "Tags": [{
                    "Key": "CustomTag",
                    "Value": {"Ref": "CustomTag"}
                }]
            }
        } 
    },
    "Outputs": {
        "S3BucketDomainName": {
            "Value": 
            {
                "Fn::GetAtt": [ "MyStaticallyHostedWebsiteBucket", "DomainName"]
            }
        }
    }
}