{
    "AWSTemplateFormatVersion": "2010-09-09",
    "Description": "ECR Repository for AWS Workshop 04",
    "Parameters": {
        "CallingUserArn": {
            "Description": "Calling User ARN",
            "Type": "String"
        }
    },
    "Resources": {
        "WorkshopRepository": {
            "Type": "AWS::ECR::Repository",
            "Properties": {
                "RepositoryName": "workshop-repository",
                "RepositoryPolicyText": {
                    "Version": "2012-10-17",
                    "Statement": [
                    {
                        "Sid": "AllowPushPull",
                        "Effect": "Allow",
                        "Principal": {
                            "Service": [
                                "ecs.amazonaws.com"
                                ],
                                "AWS": [
                                    {
                                        "Ref": "CallingUserArn"
                                    }
                                ]
                            },
                            "Action": [
                                "ecr:GetDownloadUrlForLayer",
                                "ecr:BatchGetImage",
                                "ecr:BatchCheckLayerAvailability",
                                "ecr:PutImage",
                                "ecr:InitiateLayerUpload",
                                "ecr:UploadLayerPart",
                                "ecr:CompleteLayerUpload"
                            ]
                        }
                    ]
                }
            }
        }
    },
    "Outputs": {
        "RepositoryUri": {
            "Value": {
                "Fn::GetAtt": [
                    "WorkshopRepository",
                    "RepositoryUri"
                ]
            }
        }
    }
}