{
    "Resources": {
        "DefaultBucket": {
            "Type": "AWS::S3::Bucket"
        },
        "OriginAccessIdentity": {
            "Type": "AWS::CloudFront::CloudFrontOriginAccessIdentity",
            "Properties": {
                "CloudFrontOriginAccessIdentityConfig": {
                    "Comment": "Bucket Origin Identity"
                }
            }
        },
        "BucketPolicy": {
            "Type": "AWS::S3::BucketPolicy",
            "Properties": {
                "Bucket": {"Ref": "DefaultBucket"},
                "PolicyDocument": {
                    "Version": "2012-10-17",
                    "Statement": [{
                        "Effect": "Allow",
                        "Principal": {
                            "AWS": {"Fn::Join": [" ", ["arn:aws:iam::cloudfront:user/CloudFront Origin Access Identity", {"Ref": "OriginAccessIdentity"}]]}
                        },
                        "Action": "s3:GetObject",
                        "Resource": {"Fn::Join": ["", ["arn:aws:s3:::", {"Ref": "DefaultBucket"}, "/*"]]}
                     }]
                }   
            }
        },
        "CachePolicy": {
            "Type": "AWS::CloudFront::CachePolicy",
            "Properties": {
                "CachePolicyConfig": {
                    "Comment": "Set cache policy to access s3 bucket",
                    "DefaultTTL": 86400,
                    "MaxTTL": 31536000,
                    "MinTTL": 86400,
                    "Name": {"Ref": "DefaultBucket"},
                    "ParametersInCacheKeyAndForwardedToOrigin": {
                        "CookiesConfig": {
                            "CookieBehavior": "none"
                        },
                        "EnableAcceptEncodingBrotli": true,
                        "EnableAcceptEncodingGzip": true,
                        "HeadersConfig": {
                            "HeaderBehavior": "none"
                        },
                        "QueryStringsConfig": {
                            "QueryStringBehavior": "none"
                        }
                    }
                }
            }
        },
        "DefaultDistribution": {
            "Type": "AWS::CloudFront::Distribution",
            "Properties": {
                "DistributionConfig": {
                    "DefaultCacheBehavior": {
                        "CachePolicyId": { 
                            "Fn::GetAtt": [ "CachePolicy", "Id" ]
                        },
                        "TargetOriginId": {"Ref": "DefaultBucket"},
                        "ViewerProtocolPolicy": "redirect-to-https" 
                    },
                    "DefaultRootObject": "index.html",
                    "Enabled": true,
                    "Origins": [{
                        "DomainName": {
                            "Fn::GetAtt": ["DefaultBucket", "RegionalDomainName"]
                        },
                        "Id": { "Ref": "DefaultBucket" },
                        "S3OriginConfig": {
                            "OriginAccessIdentity": {"Fn::Join": ["", ["origin-access-identity/cloudfront/", {"Ref": "OriginAccessIdentity"}]]}
                        }
                    }]
                }
            }
        }
    },
    "Outputs": {
        "S3BucketDomainName": {
            "Value": {
                "Fn::GetAtt" : [ "DefaultBucket", "DomainName" ]    
            }
        },
        "S3BucketARN": {
            "Value": {
                "Fn::GetAtt": [ "DefaultBucket", "Arn" ]
            }
        }
   } 
}
